An Introduction to metaconfoundr
…
library(metaconfoundr)

# for later examples
library(dplyr, warn.conflicts = FALSE)
library(ggplot2)

metaconfoundr(ipi)
#> # A tibble: 407 × 5
#>    construct         variable     is_confounder study        control_quality
#>    <chr>             <chr>        <chr>         <chr>        <ord>          
#>  1 Sociodemographics Maternal age Y             Zhu_2001a    adequate       
#>  2 Sociodemographics Maternal age Y             Zhu_2001b    adequate       
#>  3 Sociodemographics Maternal age Y             Zhu_1999     adequate       
#>  4 Sociodemographics Maternal age Y             Smith_2003   adequate       
#>  5 Sociodemographics Maternal age Y             Shachar_2016 adequate       
#>  6 Sociodemographics Maternal age Y             Salihu_2012a adequate       
#>  7 Sociodemographics Maternal age Y             Salihu_2012b adequate       
#>  8 Sociodemographics Maternal age Y             Hanley_2017  adequate       
#>  9 Sociodemographics Maternal age Y             deWeger_2011 adequate       
#> 10 Sociodemographics Maternal age Y             Coo_2017     adequate       
#> # … with 397 more rows
…
Data that you provide metaconfoundr() can be in two
basic formats: a long and wide. With the long format, metaconfoundr
assumes that five columns match the above layout and standardizes them.
If there are more than five, metaconfoundr() treats any
additional columns as studies, (e.g., they are in wide format). It will
automatically transform your wide data to the format expected by
metaconfoundr plotting functions. ipi has a wide cousin,
ipi_wide, which metaconfoundr() can prepare
seamlessly:

ipi_wide
#> # A tibble: 37 × 14
#>    construct      factor confo…¹ Zhu_2…² Zhu_2…³ Zhu_1…⁴ Smith…⁵ Shach…⁶ Salih…⁷
#>    <chr>          <chr>  <chr>     <dbl>   <dbl>   <dbl>   <dbl>   <dbl>   <dbl>
#>  1 Sociodemograp… Mater… Y             2       2       2       2       2       2
#>  2 Sociodemograp… Race/… Y             2       2       2       0       2       2
#>  3 Sociodemograp… Marit… Y             2       2       2       2       0       2
#>  4 Sociodemograp… Pater… Y             0       0       0       0       0       0
#>  5 Sociodemograp… Geogr… Y             0       0       2       0       0       0
#>  6 Socioeconomics SES c… Y             0       0       0       2       0       0
#>  7 Socioeconomics Incom… Y             0       0       0       0       0       0
#>  8 Socioeconomics Educa… Y             2       2       2       0       2       2
#>  9 Socioeconomics Insur… Y             0       0       0       0       2       0
#> 10 Reproductive … Prior… Y             2       2       2       2       2       2
#> # … with 27 more rows, 5 more variables: Salihu_2012b <dbl>, Hanley_2017 <dbl>,
#> #   deWeger_2011 <dbl>, Coo_2017 <dbl>, Ball_2014 <dbl>, and abbreviated
#> #   variable names ¹​confounder_y_n, ²​Zhu_2001a, ³​Zhu_2001b, ⁴​Zhu_1999,
#> #   ⁵​Smith_2003, ⁶​Shachar_2016, ⁷​Salihu_2012a

metaconfoundr(ipi_wide)
#> # A tibble: 407 × 5
#>    construct         variable     is_confounder study        control_quality
#>    <chr>             <chr>        <chr>         <chr>        <ord>          
#>  1 Sociodemographics Maternal age Y             Zhu_2001a    adequate       
#>  2 Sociodemographics Maternal age Y             Zhu_2001b    adequate       
#>  3 Sociodemographics Maternal age Y             Zhu_1999     adequate       
#>  4 Sociodemographics Maternal age Y             Smith_2003   adequate       
#>  5 Sociodemographics Maternal age Y             Shachar_2016 adequate       
#>  6 Sociodemographics Maternal age Y             Salihu_2012a adequate       
#>  7 Sociodemographics Maternal age Y             Salihu_2012b adequate       
#>  8 Sociodemographics Maternal age Y             Hanley_2017  adequate       
#>  9 Sociodemographics Maternal age Y             deWeger_2011 adequate       
#> 10 Sociodemographics Maternal age Y             Coo_2017     adequate       
#> # … with 397 more rows
…
summary_df <- summarize_control_quality(
  metaconfoundr(ipi),
  Sociodemographics = `Maternal age` & `Race/ethnicity` & `Marital status`,
  Socioeconomics = `SES category` | Insurance & Education,
  "Reproductive Hx" = `Prior pregnancy outcome`
)

summary_df
#> # A tibble: 44 × 4
#>    study     variable          control_quality construct
#>    <chr>     <fct>             <ord>           <fct>    
#>  1 Zhu_2001a overall           some concerns   overall  
#>  2 Zhu_2001a Sociodemographics adequate        domains  
#>  3 Zhu_2001a Socioeconomics    inadequate      domains  
#>  4 Zhu_2001a Reproductive Hx   adequate        domains  
#>  5 Zhu_2001b overall           some concerns   overall  
#>  6 Zhu_2001b Sociodemographics adequate        domains  
#>  7 Zhu_2001b Socioeconomics    inadequate      domains  
#>  8 Zhu_2001b Reproductive Hx   adequate        domains  
#>  9 Zhu_1999  overall           some concerns   overall  
#> 10 Zhu_1999  Sociodemographics adequate        domains  
#> # … with 34 more rows
…
